[gd_scene load_steps=5 format=2]

[ext_resource path="res://kerno/menuo/resursoj/fonts/18957.otf" type="FontFile" id=1]
[ext_resource path="res://kerno/menuo/resursoj/fonts/Buttons_stylel.tres" type="StyleBox" id=2]
[ext_resource path="res://kerno/menuo/resursoj/icons/RCentro.png" type="Texture2D" id=3]

[sub_resource type="FontFile" id=1]
font_data = ExtResource( 1 )

[node name="Resurso Center" type="Button"]
offset_right = 52.0
offset_bottom = 48.0
theme_override_styles/focus = ExtResource( 2 )
theme_override_fonts/font = SubResource( 1 )
icon = ExtResource( 3 )
__meta__ = {
"_edit_group_": true,
"_edit_use_anchors_": false
}
