[gd_scene load_steps=5 format=2]

[ext_resource path="res://kerno/menuo/resursoj/icons/Taskoj.png" type="Texture2D" id=1]
[ext_resource path="res://kerno/menuo/resursoj/fonts/18957.otf" type="FontFile" id=3]
[ext_resource path="res://kerno/menuo/resursoj/fonts/Buttons_stylel.tres" type="StyleBox" id=4]


[sub_resource type="FontFile" id=1]
font_data = ExtResource( 3 )

[node name="Taskoj" type="Button"]
offset_right = 48.0
offset_bottom = 48.0
theme_override_styles/focus = ExtResource( 4 )
theme_override_fonts/font = SubResource( 1 )
icon = ExtResource( 1 )
expand_icon = true
__meta__ = {
"_edit_group_": true,
"_edit_use_anchors_": false
}
