[gd_scene load_steps=4 format=2]

[ext_resource path="res://blokoj/asteroidoj/resursoj/ast_5_cr.glb" type="PackedScene" id=1]
[ext_resource path="res://blokoj/asteroidoj/skriptoj/ast_.gd" type="Script" id=2]

[sub_resource type="ConcavePolygonShape3D" id=1]
data = PackedVector3Array( -2.2825, 9.5438, -4.9462, 0.6305, 7.2334, -5.8772, -1.3522, 9.2563, -2.2742, 6.5688, 6.2919, -4.633, 9.4977, 6.0578, -1.0952, 5.8833, 7.7029, -3.572, 5.8833, 7.7029, -3.572, 9.4977, 6.0578, -1.0952, 6.5928, 8.1623, -1.214, 6.5688, 6.2919, -4.633, 5.8833, 7.7029, -3.572, 2.7937, 6.5548, -2.4347, 2.7937, 6.5548, -2.4347, 5.8833, 7.7029, -3.572, 6.5928, 8.1623, -1.214, -1.3522, 9.2563, -2.2742, 0.6305, 7.2334, -5.8772, 2.1799, 7.2139, 0.4699, -2.2825, 9.5438, -4.9462, -1.3522, 9.2563, -2.2742, -6.2754, 9.573, -2.8179, -6.2754, 9.573, -2.8179, -1.3522, 9.2563, -2.2742, -2.9366, 9.8243, -0.8063, -8.941, 8.1157, -1.1949, -6.2754, 9.573, -2.8179, -7.264, 9.2665, 0.0265, 2.1799, 7.2139, 0.4699, 6.5928, 8.1623, -1.214, 5.7081, 7.6234, 1.4631, -4.1952, 8.3067, 2.3154, -2.9366, 9.8243, -0.8063, -1.7423, 9.2153, 3.0182, 5.7081, 7.6234, 1.4631, 9.2749, 6.7879, 1.9021, 8.5064, 6.4392, 4.6058, -1.7423, 9.2153, 3.0182, 2.1799, 7.2139, 0.4699, 2.1256, 5.1502, 3.6673, 2.1256, 5.1502, 3.6673, 5.7081, 7.6234, 1.4631, 4.5415, 5.5533, 5.3598, -4.1952, 8.3067, 2.3154, -1.7423, 9.2153, 3.0182, -4.9798, 7.3084, 4.9982, -6.5953, 9.2292, 2.2121, -4.1952, 8.3067, 2.3154, -4.9798, 7.3084, 4.9982, -6.5953, 9.2292, 2.2121, -4.9798, 7.3084, 4.9982, -7.5099, 6.287, 6.1138, -9.1173, 7.9812, 3.8169, -6.5953, 9.2292, 2.2121, -7.5099, 6.287, 6.1138, -2.2825, 9.5438, -4.9462, 0.9434, 5.7497, -7.7244, 0.6305, 7.2334, -5.8772, -6.4964, 8.154, -5.7353, -3.8717, 6.357, -7.766, -2.2825, 9.5438, -4.9462, -10.753, 6.8675, -4.0753, -6.4964, 8.154, -5.7353, -8.941, 8.1157, -1.1949, -8.941, 8.1157, -1.1949, -7.264, 9.2665, 0.0265, -9.1173, 7.9812, 3.8169, -4.9798, 7.3084, 4.9982, -3.974, 4.9886, 6.9674, -7.5099, 6.287, 6.1138, -4.9798, 7.3084, 4.9982, -0.7531, 3.2004, 4.6972, -3.974, 4.9886, 6.9674, 2.1256, 5.1502, 3.6673, 2.2647, 3.2121, 4.8187, -0.7531, 3.2004, 4.6972, 2.1256, 5.1502, 3.6673, 4.5415, 5.5533, 5.3598, 2.2647, 3.2121, 4.8187, 5.7081, 7.6234, 1.4631, 9.4977, 6.0578, -1.0952, 9.2749, 6.7879, 1.9021, 8.7211, -6.3394, 6.022, 5.9452, -5.4451, 4.6638, 8.4337, -3.8696, 7.6656, 6.6756, 2.9949, 7.6044, 5.5864, -0.9194, 8.0615, 5.2915, 1.3381, 8.3594, 3.435, -4.0195, 5.6258, 0.6777, -4.6009, 6.3943, 2.0067, -0.9566, 7.046, 0.6777, -4.6009, 6.3943, 3.435, -4.0195, 5.6258, 0.0662, -6.6628, 4.6451, 2.0067, -0.9566, 7.046, 0.6777, -4.6009, 6.3943, -1.2962, -3.5694, 6.5294, 2.0067, -0.9566, 7.046, -3.4795, 2.2295, 9.2843, 1.1466, 1.8944, 5.4387, -1.9732, -0.5706, 8.6304, -1.2962, -3.5694, 6.5294, -6.939, -4.2832, 7.6093, -3.974, 4.9886, 6.9674, -3.4795, 2.2295, 9.2843, -6.3086, 3.1519, 7.2703, -3.974, 4.9886, 6.9674, -6.3086, 3.1519, 7.2703, -5.9474, 5.1683, 7.4956, -6.939, -4.2832, 7.6093, -1.2962, -3.5694, 6.5294, -8.3342, -5.6648, 7.0158, -6.3086, 3.1519, 7.2703, -5.1502, -0.3039, 8.8253, -9.5806, 1.452, 7.8168, 8.4337, -3.8696, 7.6656, 5.5864, -0.9194, 8.0615, 9.2571, -1.3694, 8.2302, 10.7284, 2.726, 7.419, 9.2571, -1.3694, 8.2302, 5.5864, -0.9194, 8.0615, 6.6756, 2.9949, 7.6044, 10.7284, 2.726, 7.419, 5.5864, -0.9194, 8.0615, 8.2494, 5.1607, 5.9605, 2.2647, 3.2121, 4.8187, 4.5415, 5.5533, 5.3598, 2.2647, 3.2121, 4.8187, 6.6756, 2.9949, 7.6044, 1.1466, 1.8944, 5.4387, 2.2647, 3.2121, 4.8187, 1.1466, 1.8944, 5.4387, -0.7531, 3.2004, 4.6972, -5.9474, 5.1683, 7.4956, -6.3086, 3.1519, 7.2703, -9.7309, 3.0157, 3.83, -5.9474, 5.1683, 7.4956, -9.7309, 3.0157, 3.83, -9.1758, 6.1978, 5.4334, -1.2962, -3.5694, 6.5294, -4.7887, -8.7705, 4.054, -6.7381, -9.5225, 3.2851, -1.2962, -3.5694, 6.5294, -6.7381, -9.5225, 3.2851, -8.3342, -5.6648, 7.0158, 3.435, -4.0195, 5.6258, 5.9452, -5.4451, 4.6638, 0.0662, -6.6628, 4.6451, -13.2509, -1.733, 4.4026, -9.9938, -2.4989, 7.0853, -11.1299, -6.0373, 4.2931, -9.7309, 3.0157, 3.83, -9.5806, 1.452, 7.8168, -13.5498, 0.9865, 2.4589, -11.1299, -6.0373, 4.2931, -13.9711, -3.631, 0.5387, -13.2509, -1.733, 4.4026, -11.1299, -6.0373, 4.2931, -11.5219, -6.8924, 0.3775, -13.9711, -3.631, 0.5387, -13.5498, 0.9865, 2.4589, -13.2509, -1.733, 4.4026, -13.9711, -3.631, 0.5387, -14.7715, 2.2875, -0.9614, -13.5498, 0.9865, 2.4589, -15.3492, -1.8104, -2.2353, -13.5498, 0.9865, 2.4589, -13.9711, -3.631, 0.5387, -15.3492, -1.8104, -2.2353, -11.5219, -6.8924, 0.3775, -11.3149, -8.214, -1.5456, -13.9711, -3.631, 0.5387, -14.7715, 2.2875, -0.9614, -15.3492, -1.8104, -2.2353, -14.0658, 2.0976, -3.0644, -15.3492, -1.8104, -2.2353, -11.3149, -8.214, -1.5456, -13.0373, -3.6698, -6.6491, -10.753, 6.8675, -4.0753, -14.0658, 2.0976, -3.0644, -11.3764, 2.1288, -5.7762, -10.2269, 7.102, -5.5057, -10.753, 6.8675, -4.0753, -11.3764, 2.1288, -5.7762, -9.9938, -2.4989, 7.0853, -8.3342, -5.6648, 7.0158, -11.1299, -6.0373, 4.2931, -9.5806, 1.452, 7.8168, -9.9938, -2.4989, 7.0853, -13.2509, -1.733, 4.4026, -9.1758, 6.1978, 5.4334, -9.7309, 3.0157, 3.83, -10.8724, 5.7639, 4.6432, -9.1758, 6.1978, 5.4334, -10.8724, 5.7639, 4.6432, -9.1173, 7.9812, 3.8169, -8.941, 8.1157, -1.1949, -12.5768, 6.1016, -1.7045, -10.753, 6.8675, -4.0753, -11.0722, -2.2682, -7.9098, -10.5385, -3.1663, -10.2579, -11.1989, 0.5546, -8.3724, -11.3149, -8.214, -1.5456, -9.7239, -8.3256, -3.5276, -13.0373, -3.6698, -6.6491, -11.1299, -6.0373, 4.2931, -8.356, -7.9275, 3.7056, -11.5219, -6.8924, 0.3775, -11.1299, -6.0373, 4.2931, -8.3342, -5.6648, 7.0158, -8.356, -7.9275, 3.7056, 5.0707, -8.5654, -6.1509, 0.581, -7.2245, -4.0612, 7.4024, -10.2403, -3.2799, -2.7211, -8.6005, -4.005, -6.7402, -8.2128, -6.4058, -4.4314, -9.2034, -1.1801, 0.581, -7.2245, -4.0612, -2.7211, -8.6005, -4.005, 1.1447, -6.5292, -1.7754, 4.6788, -8.9667, -2.1573, 0.581, -7.2245, -4.0612, 1.1447, -6.5292, -1.7754, 7.4024, -10.2403, -3.2799, 0.581, -7.2245, -4.0612, 4.6788, -8.9667, -2.1573, 1.1447, -6.5292, -1.7754, -2.7211, -8.6005, -4.005, -4.4314, -9.2034, -1.1801, 7.4024, -10.2403, -3.2799, 4.6788, -8.9667, -2.1573, 9.3419, -9.6462, -0.439, 9.3419, -9.6462, -0.439, 4.6788, -8.9667, -2.1573, 4.1402, -9.2955, 0.7028, -2.4436, -10.5909, 0.1931, -1.1554, -10.2567, 1.9777, 0.7992, -8.6031, 1.0881, 1.1447, -6.5292, -1.7754, -2.4436, -10.5909, 0.1931, 0.7992, -8.6031, 1.0881, 4.6788, -8.9667, -2.1573, 1.1447, -6.5292, -1.7754, 4.1402, -9.2955, 0.7028, -5.6943, -9.1898, 0.7367, -8.356, -7.9275, 3.7056, -6.7381, -9.5225, 3.2851, -2.2952, -8.9972, 3.599, -5.6943, -9.1898, 0.7367, -4.7887, -8.7705, 4.054, 0.7992, -8.6031, 1.0881, -1.1554, -10.2567, 1.9777, 2.3935, -7.4423, 3.02, 2.3935, -7.4423, 3.02, -2.2952, -8.9972, 3.599, 0.0662, -6.6628, 4.6451, 7.3345, -8.9769, 2.7659, 2.3935, -7.4423, 3.02, 8.7211, -6.3394, 6.022, -1.4596, -4.7716, -8.7545, -7.7552, -6.3012, -9.4652, -6.7402, -8.2128, -6.4058, -1.4596, -4.7716, -8.7545, -2.7211, -8.6005, -4.005, 1.0301, -5.4603, -7.3254, 8.712, -8.1607, -6.7267, 5.0707, -8.5654, -6.1509, 7.4024, -10.2403, -3.2799, 10.6052, -8.6479, -4.2927, 8.712, -8.1607, -6.7267, 7.4024, -10.2403, -3.2799, 11.4964, -9.59, -1.4526, 7.4024, -10.2403, -3.2799, 9.3419, -9.6462, -0.439, 2.3935, -7.4423, 3.02, 0.0662, -6.6628, 4.6451, 5.9452, -5.4451, 4.6638, -2.2952, -8.9972, 3.599, -4.7887, -8.7705, 4.054, 0.0662, -6.6628, 4.6451, -8.356, -7.9275, 3.7056, -8.3342, -5.6648, 7.0158, -6.7381, -9.5225, 3.2851, -8.356, -7.9275, 3.7056, -11.3149, -8.214, -1.5456, -11.5219, -6.8924, 0.3775, -9.7239, -8.3256, -3.5276, -10.6382, -5.6672, -8.4135, -13.0373, -3.6698, -6.6491, 12.1062, -6.438, -5.3678, 14.0424, -3.1147, -3.6306, 11.4615, -3.9716, -7.3819, 10.7974, -2.2073, -6.6082, 12.9218, 1.0326, -3.3194, 10.4122, 2.0927, -4.683, 11.4615, -3.9716, -7.3819, 14.0424, -3.1147, -3.6306, 12.9218, 1.0326, -3.3194, 12.1062, -6.438, -5.3678, 10.6052, -8.6479, -4.2927, 13.2127, -8.301, -1.954, 14.0424, -3.1147, -3.6306, 12.1062, -6.438, -5.3678, 14.1399, -4.7608, -1.7729, 12.9218, 1.0326, -3.3194, 14.0424, -3.1147, -3.6306, 14.5556, 1.2918, 0.9173, 11.0165, 3.7751, -2.2389, 12.9218, 1.0326, -3.3194, 14.5556, 1.2918, 0.9173, 14.1399, -4.7608, -1.7729, 13.2127, -8.301, -1.954, 15.0564, -6.2728, 0.0759, 15.5865, -2.1816, 0.7065, 15.0564, -6.2728, 0.0759, 15.5872, -4.2481, 1.7221, 14.5556, 1.2918, 0.9173, 15.5865, -2.1816, 0.7065, 14.9229, -1.0221, 3.4398, 12.602, -8.3462, 1.4528, 10.6096, -8.3534, 3.4607, 13.3208, -4.3805, 5.2466, 12.4421, 2.8466, 4.693, 14.9229, -1.0221, 3.4398, 10.7284, 2.726, 7.419, 9.3137, -3.8425, -8.065, 12.1062, -6.438, -5.3678, 11.4615, -3.9716, -7.3819, 8.8803, -0.2421, -7.7694, 10.7974, -2.2073, -6.6082, 10.4122, 2.0927, -4.683, 10.4122, 2.0927, -4.683, 12.9218, 1.0326, -3.3194, 11.0165, 3.7751, -2.2389, 9.4977, 6.0578, -1.0952, 11.0165, 3.7751, -2.2389, 13.5461, 4.6954, 1.1307, 8.5064, 6.4392, 4.6058, 13.5461, 4.6954, 1.1307, 12.4421, 2.8466, 4.693, 8.5064, 6.4392, 4.6058, 12.4421, 2.8466, 4.693, 8.2494, 5.1607, 5.9605, 10.7284, 2.726, 7.419, 14.9229, -1.0221, 3.4398, 9.2571, -1.3694, 8.2302, 14.9229, -1.0221, 3.4398, 13.3208, -4.3805, 5.2466, 9.2571, -1.3694, 8.2302, 9.2571, -1.3694, 8.2302, 13.3208, -4.3805, 5.2466, 8.4337, -3.8696, 7.6656, 10.6096, -8.3534, 3.4607, 8.7211, -6.3394, 6.022, 13.3208, -4.3805, 5.2466, 9.9615, -10.5017, 1.8902, 10.6096, -8.3534, 3.4607, 12.602, -8.3462, 1.4528, 11.4964, -9.59, -1.4526, 9.3419, -9.6462, -0.439, 12.602, -8.3462, 1.4528, 13.2127, -8.301, -1.954, 11.4964, -9.59, -1.4526, 12.602, -8.3462, 1.4528, 9.3419, -9.6462, -0.439, 9.9615, -10.5017, 1.8902, 12.602, -8.3462, 1.4528, 13.2127, -8.301, -1.954, 10.6052, -8.6479, -4.2927, 11.4964, -9.59, -1.4526, -8.9119, 1.5448, -9.9297, -9.6782, -1.2256, -10.316, -5.4977, -0.628, -11.0214, -6.2793, 4.8814, -9.7123, -8.9119, 1.5448, -9.9297, -6.9977, 1.8576, -10.9932, -6.2793, 4.8814, -9.7123, -6.9977, 1.8576, -10.9932, -4.4607, 2.2276, -9.9911, -5.4977, -0.628, -11.0214, -0.6578, -1.938, -9.3985, -4.4607, 2.2276, -9.9911, -4.4607, 2.2276, -9.9911, -0.6578, -1.938, -9.3985, -0.7394, 0.993, -9.9464, -3.8717, 6.357, -7.766, -4.4607, 2.2276, -9.9911, 0.524, 2.113, -8.6403, -4.4607, 2.2276, -9.9911, -0.7394, 0.993, -9.9464, 0.524, 2.113, -8.6403, 0.9434, 5.7497, -7.7244, -3.8717, 6.357, -7.766, 0.524, 2.113, -8.6403, -0.6578, -1.938, -9.3985, -1.4596, -4.7716, -8.7545, 1.0301, -5.4603, -7.3254, -0.6578, -1.938, -9.3985, 1.0301, -5.4603, -7.3254, 2.7626, -0.3878, -7.9871, 0.524, 2.113, -8.6403, 2.7626, -0.3878, -7.9871, 3.4075, 1.5562, -7.7726, 0.524, 2.113, -8.6403, 3.4075, 1.5562, -7.7726, 3.0786, 4.3982, -6.8796, 1.0301, -5.4603, -7.3254, 6.1318, -5.9738, -8.8403, 5.1812, -3.7522, -8.2938, 2.7626, -0.3878, -7.9871, 5.5082, -0.3691, -9.0766, 3.4075, 1.5562, -7.7726, 5.1812, -3.7522, -8.2938, 9.3137, -3.8425, -8.065, 8.8803, -0.2421, -7.7694, 3.4075, 1.5562, -7.7726, 8.8803, -0.2421, -7.7694, 7.4921, 2.8243, -7.4409, -11.1989, 0.5546, -8.3724, -10.5385, -3.1663, -10.2579, -9.6782, -1.2256, -10.316, -11.1989, 0.5546, -8.3724, -9.6782, -1.2256, -10.316, -8.9119, 1.5448, -9.9297, -8.8104, 6.8394, -7.3196, -9.6378, 4.0847, -7.0837, -6.2793, 4.8814, -9.7123, 8.3012, -6.1667, -8.4735, 12.1062, -6.438, -5.3678, 9.3137, -3.8425, -8.065, 6.1318, -5.9738, -8.8403, 5.0707, -8.5654, -6.1509, 8.712, -8.1607, -6.7267, -5.4977, -0.628, -11.0214, -7.7552, -6.3012, -9.4652, -1.4596, -4.7716, -8.7545, -6.4964, 8.154, -5.7353, -2.2825, 9.5438, -4.9462, -6.2754, 9.573, -2.8179, 0.6305, 7.2334, -5.8772, 2.7937, 6.5548, -2.4347, 2.1799, 7.2139, 0.4699, -6.4964, 8.154, -5.7353, -6.2754, 9.573, -2.8179, -8.941, 8.1157, -1.1949, 9.4977, 6.0578, -1.0952, 5.7081, 7.6234, 1.4631, 6.5928, 8.1623, -1.214, 6.5928, 8.1623, -1.214, 2.1799, 7.2139, 0.4699, 2.7937, 6.5548, -2.4347, -1.3522, 9.2563, -2.2742, 2.1799, 7.2139, 0.4699, -2.9366, 9.8243, -0.8063, -6.2754, 9.573, -2.8179, -2.9366, 9.8243, -0.8063, -7.264, 9.2665, 0.0265, 2.1799, 7.2139, 0.4699, 5.7081, 7.6234, 1.4631, 2.1256, 5.1502, 3.6673, -2.9366, 9.8243, -0.8063, 2.1799, 7.2139, 0.4699, -1.7423, 9.2153, 3.0182, -2.9366, 9.8243, -0.8063, -4.1952, 8.3067, 2.3154, -7.264, 9.2665, 0.0265, -7.264, 9.2665, 0.0265, -4.1952, 8.3067, 2.3154, -6.5953, 9.2292, 2.2121, -7.264, 9.2665, 0.0265, -6.5953, 9.2292, 2.2121, -9.1173, 7.9812, 3.8169, 5.7081, 7.6234, 1.4631, 8.5064, 6.4392, 4.6058, 4.5415, 5.5533, 5.3598, 8.5064, 6.4392, 4.6058, 8.2494, 5.1607, 5.9605, 4.5415, 5.5533, 5.3598, -1.7423, 9.2153, 3.0182, 2.1256, 5.1502, 3.6673, -4.9798, 7.3084, 4.9982, 7.4921, 2.8243, -7.4409, 6.5688, 6.2919, -4.633, 3.0786, 4.3982, -6.8796, 3.0786, 4.3982, -6.8796, 6.5688, 6.2919, -4.633, 2.7937, 6.5548, -2.4347, 2.0067, -0.9566, 7.046, 8.4337, -3.8696, 7.6656, 3.435, -4.0195, 5.6258, 2.0067, -0.9566, 7.046, 5.5864, -0.9194, 8.0615, 8.4337, -3.8696, 7.6656, -3.8717, 6.357, -7.766, -6.4964, 8.154, -5.7353, -8.8104, 6.8394, -7.3196, -6.4964, 8.154, -5.7353, -10.2269, 7.102, -5.5057, -8.8104, 6.8394, -7.3196, -6.4964, 8.154, -5.7353, -10.753, 6.8675, -4.0753, -10.2269, 7.102, -5.5057, -9.1173, 7.9812, 3.8169, -7.5099, 6.287, 6.1138, -9.1758, 6.1978, 5.4334, 2.1256, 5.1502, 3.6673, -0.7531, 3.2004, 4.6972, -4.9798, 7.3084, 4.9982, 6.5688, 6.2919, -4.633, 11.0165, 3.7751, -2.2389, 9.4977, 6.0578, -1.0952, 10.4122, 2.0927, -4.683, 6.5688, 6.2919, -4.633, 7.4921, 2.8243, -7.4409, 10.4122, 2.0927, -4.683, 11.0165, 3.7751, -2.2389, 6.5688, 6.2919, -4.633, 5.9452, -5.4451, 4.6638, 3.435, -4.0195, 5.6258, 8.4337, -3.8696, 7.6656, 6.6756, 2.9949, 7.6044, 5.2915, 1.3381, 8.3594, 2.0067, -0.9566, 7.046, 6.6756, 2.9949, 7.6044, 2.0067, -0.9566, 7.046, 1.1466, 1.8944, 5.4387, -3.4795, 2.2295, 9.2843, -0.7531, 3.2004, 4.6972, 1.1466, 1.8944, 5.4387, -3.974, 4.9886, 6.9674, -0.7531, 3.2004, 4.6972, -3.4795, 2.2295, 9.2843, 5.5864, -0.9194, 8.0615, 2.0067, -0.9566, 7.046, 5.2915, 1.3381, 8.3594, 0.6777, -4.6009, 6.3943, 0.0662, -6.6628, 4.6451, -1.2962, -3.5694, 6.5294, 2.0067, -0.9566, 7.046, -1.2962, -3.5694, 6.5294, -1.9732, -0.5706, 8.6304, 2.0067, -0.9566, 7.046, -1.9732, -0.5706, 8.6304, -3.4795, 2.2295, 9.2843, -9.6378, 4.0847, -7.0837, -10.2269, 7.102, -5.5057, -11.3764, 2.1288, -5.7762, -8.8104, 6.8394, -7.3196, -10.2269, 7.102, -5.5057, -9.6378, 4.0847, -7.0837, -1.9732, -0.5706, 8.6304, -6.939, -4.2832, 7.6093, -5.1502, -0.3039, 8.8253, -3.4795, 2.2295, 9.2843, -1.9732, -0.5706, 8.6304, -5.1502, -0.3039, 8.8253, -3.4795, 2.2295, 9.2843, -5.1502, -0.3039, 8.8253, -6.3086, 3.1519, 7.2703, -5.1502, -0.3039, 8.8253, -9.9938, -2.4989, 7.0853, -9.5806, 1.452, 7.8168, -5.1502, -0.3039, 8.8253, -6.939, -4.2832, 7.6093, -9.9938, -2.4989, 7.0853, 8.7211, -6.3394, 6.022, 8.4337, -3.8696, 7.6656, 13.3208, -4.3805, 5.2466, 8.2494, 5.1607, 5.9605, 6.6756, 2.9949, 7.6044, 2.2647, 3.2121, 4.8187, -3.974, 4.9886, 6.9674, -5.9474, 5.1683, 7.4956, -7.5099, 6.287, 6.1138, -5.9474, 5.1683, 7.4956, -9.1758, 6.1978, 5.4334, -7.5099, 6.287, 6.1138, -6.3086, 3.1519, 7.2703, -9.5806, 1.452, 7.8168, -9.7309, 3.0157, 3.83, -6.939, -4.2832, 7.6093, -8.3342, -5.6648, 7.0158, -9.9938, -2.4989, 7.0853, 0.0662, -6.6628, 4.6451, -4.7887, -8.7705, 4.054, -1.2962, -3.5694, 6.5294, -9.5806, 1.452, 7.8168, -13.2509, -1.733, 4.4026, -13.5498, 0.9865, 2.4589, -9.7309, 3.0157, 3.83, -13.5498, 0.9865, 2.4589, -10.8724, 5.7639, 4.6432, -10.8724, 5.7639, 4.6432, -13.5498, 0.9865, 2.4589, -14.7715, 2.2875, -0.9614, -14.7715, 2.2875, -0.9614, -12.5768, 6.1016, -1.7045, -10.8724, 5.7639, 4.6432, -13.9711, -3.631, 0.5387, -11.3149, -8.214, -1.5456, -15.3492, -1.8104, -2.2353, -14.7715, 2.2875, -0.9614, -14.0658, 2.0976, -3.0644, -12.5768, 6.1016, -1.7045, -14.0658, 2.0976, -3.0644, -10.753, 6.8675, -4.0753, -12.5768, 6.1016, -1.7045, -13.0373, -3.6698, -6.6491, -11.1989, 0.5546, -8.3724, -15.3492, -1.8104, -2.2353, -15.3492, -1.8104, -2.2353, -11.1989, 0.5546, -8.3724, -14.0658, 2.0976, -3.0644, -11.1989, 0.5546, -8.3724, -11.3764, 2.1288, -5.7762, -14.0658, 2.0976, -3.0644, -10.8724, 5.7639, 4.6432, -12.5768, 6.1016, -1.7045, -9.1173, 7.9812, 3.8169, -9.1173, 7.9812, 3.8169, -12.5768, 6.1016, -1.7045, -8.941, 8.1157, -1.1949, -6.7402, -8.2128, -6.4058, -10.6382, -5.6672, -8.4135, -9.7239, -8.3256, -3.5276, -7.7552, -6.3012, -9.4652, -10.6382, -5.6672, -8.4135, -6.7402, -8.2128, -6.4058, -13.0373, -3.6698, -6.6491, -11.0722, -2.2682, -7.9098, -11.1989, 0.5546, -8.3724, -13.0373, -3.6698, -6.6491, -10.5385, -3.1663, -10.2579, -11.0722, -2.2682, -7.9098, -10.6382, -5.6672, -8.4135, -10.5385, -3.1663, -10.2579, -13.0373, -3.6698, -6.6491, -9.7239, -8.3256, -3.5276, -5.6943, -9.1898, 0.7367, -4.4314, -9.2034, -1.1801, -9.7239, -8.3256, -3.5276, -11.3149, -8.214, -1.5456, -5.6943, -9.1898, 0.7367, -6.7402, -8.2128, -6.4058, -2.7211, -8.6005, -4.005, -1.4596, -4.7716, -8.7545, 1.0301, -5.4603, -7.3254, -2.7211, -8.6005, -4.005, 0.581, -7.2245, -4.0612, 1.0301, -5.4603, -7.3254, 0.581, -7.2245, -4.0612, 5.0707, -8.5654, -6.1509, -6.7402, -8.2128, -6.4058, -9.7239, -8.3256, -3.5276, -7.2533, -9.9572, -4.2569, -6.7402, -8.2128, -6.4058, -7.2533, -9.9572, -4.2569, -4.4314, -9.2034, -1.1801, -7.2533, -9.9572, -4.2569, -9.7239, -8.3256, -3.5276, -4.4314, -9.2034, -1.1801, -5.6943, -9.1898, 0.7367, -1.1554, -10.2567, 1.9777, -2.4436, -10.5909, 0.1931, -5.6943, -9.1898, 0.7367, -2.2952, -8.9972, 3.599, -1.1554, -10.2567, 1.9777, -4.4314, -9.2034, -1.1801, -2.4436, -10.5909, 0.1931, 1.1447, -6.5292, -1.7754, -4.4314, -9.2034, -1.1801, -5.6943, -9.1898, 0.7367, -2.4436, -10.5909, 0.1931, 1.1447, -6.5292, -1.7754, 0.7992, -8.6031, 1.0881, 4.1402, -9.2955, 0.7028, 9.3419, -9.6462, -0.439, 4.1402, -9.2955, 0.7028, 7.3345, -8.9769, 2.7659, -5.6943, -9.1898, 0.7367, -6.7381, -9.5225, 3.2851, -4.7887, -8.7705, 4.054, 12.4421, 2.8466, 4.693, 14.5556, 1.2918, 0.9173, 14.9229, -1.0221, 3.4398, 12.4421, 2.8466, 4.693, 13.5461, 4.6954, 1.1307, 14.5556, 1.2918, 0.9173, -1.1554, -10.2567, 1.9777, -2.2952, -8.9972, 3.599, 2.3935, -7.4423, 3.02, 4.1402, -9.2955, 0.7028, 0.7992, -8.6031, 1.0881, 2.3935, -7.4423, 3.02, 4.1402, -9.2955, 0.7028, 2.3935, -7.4423, 3.02, 7.3345, -8.9769, 2.7659, 2.7937, 6.5548, -2.4347, 0.9434, 5.7497, -7.7244, 3.0786, 4.3982, -6.8796, 2.7937, 6.5548, -2.4347, 0.6305, 7.2334, -5.8772, 0.9434, 5.7497, -7.7244, 7.3345, -8.9769, 2.7659, 8.7211, -6.3394, 6.022, 10.6096, -8.3534, 3.4607, 1.0301, -5.4603, -7.3254, 5.0707, -8.5654, -6.1509, 3.5805, -6.7433, -8.267, 10.6052, -8.6479, -4.2927, 7.4024, -10.2403, -3.2799, 11.4964, -9.59, -1.4526, 9.3419, -9.6462, -0.439, 7.3345, -8.9769, 2.7659, 9.9615, -10.5017, 1.8902, 7.3345, -8.9769, 2.7659, 10.6096, -8.3534, 3.4607, 9.9615, -10.5017, 1.8902, 2.3935, -7.4423, 3.02, 5.9452, -5.4451, 4.6638, 8.7211, -6.3394, 6.022, -11.3149, -8.214, -1.5456, -8.356, -7.9275, 3.7056, -5.6943, -9.1898, 0.7367, 12.1062, -6.438, -5.3678, 13.2127, -8.301, -1.954, 14.1399, -4.7608, -1.7729, 14.1399, -4.7608, -1.7729, 15.0564, -6.2728, 0.0759, 15.5865, -2.1816, 0.7065, 14.0424, -3.1147, -3.6306, 14.1399, -4.7608, -1.7729, 15.5865, -2.1816, 0.7065, 14.0424, -3.1147, -3.6306, 15.5865, -2.1816, 0.7065, 14.5556, 1.2918, 0.9173, 11.0165, 3.7751, -2.2389, 14.5556, 1.2918, 0.9173, 13.5461, 4.6954, 1.1307, 15.0564, -6.2728, 0.0759, 12.602, -8.3462, 1.4528, 15.5872, -4.2481, 1.7221, 15.5865, -2.1816, 0.7065, 15.5872, -4.2481, 1.7221, 14.9229, -1.0221, 3.4398, 12.1062, -6.438, -5.3678, 8.712, -8.1607, -6.7267, 10.6052, -8.6479, -4.2927, 12.1062, -6.438, -5.3678, 8.3012, -6.1667, -8.4735, 8.712, -8.1607, -6.7267, 12.602, -8.3462, 1.4528, 13.3208, -4.3805, 5.2466, 15.5872, -4.2481, 1.7221, 15.5872, -4.2481, 1.7221, 13.3208, -4.3805, 5.2466, 14.9229, -1.0221, 3.4398, 10.7974, -2.2073, -6.6082, 9.3137, -3.8425, -8.065, 11.4615, -3.9716, -7.3819, 10.7974, -2.2073, -6.6082, 8.8803, -0.2421, -7.7694, 9.3137, -3.8425, -8.065, 11.4615, -3.9716, -7.3819, 12.9218, 1.0326, -3.3194, 10.7974, -2.2073, -6.6082, 8.8803, -0.2421, -7.7694, 10.4122, 2.0927, -4.683, 7.4921, 2.8243, -7.4409, 9.4977, 6.0578, -1.0952, 13.5461, 4.6954, 1.1307, 9.2749, 6.7879, 1.9021, 9.2749, 6.7879, 1.9021, 13.5461, 4.6954, 1.1307, 8.5064, 6.4392, 4.6058, 12.4421, 2.8466, 4.693, 10.7284, 2.726, 7.419, 8.2494, 5.1607, 5.9605, 8.2494, 5.1607, 5.9605, 10.7284, 2.726, 7.419, 6.6756, 2.9949, 7.6044, 12.602, -8.3462, 1.4528, 15.0564, -6.2728, 0.0759, 13.2127, -8.301, -1.954, -10.5385, -3.1663, -10.2579, -5.4977, -0.628, -11.0214, -9.6782, -1.2256, -10.316, -7.7552, -6.3012, -9.4652, -5.4977, -0.628, -11.0214, -10.5385, -3.1663, -10.2579, -8.9119, 1.5448, -9.9297, -5.4977, -0.628, -11.0214, -6.9977, 1.8576, -10.9932, -5.4977, -0.628, -11.0214, -1.4596, -4.7716, -8.7545, -0.6578, -1.938, -9.3985, -5.4977, -0.628, -11.0214, -4.4607, 2.2276, -9.9911, -6.9977, 1.8576, -10.9932, -6.2793, 4.8814, -9.7123, -4.4607, 2.2276, -9.9911, -3.8717, 6.357, -7.766, -0.6578, -1.938, -9.3985, 2.7626, -0.3878, -7.9871, 0.524, 2.113, -8.6403, -0.6578, -1.938, -9.3985, 0.524, 2.113, -8.6403, -0.7394, 0.993, -9.9464, 3.5805, -6.7433, -8.267, 6.1318, -5.9738, -8.8403, 1.0301, -5.4603, -7.3254, 1.0301, -5.4603, -7.3254, 5.1812, -3.7522, -8.2938, 2.7626, -0.3878, -7.9871, 2.7626, -0.3878, -7.9871, 5.1812, -3.7522, -8.2938, 5.5082, -0.3691, -9.0766, 6.1318, -5.9738, -8.8403, 8.3012, -6.1667, -8.4735, 5.1812, -3.7522, -8.2938, 8.3012, -6.1667, -8.4735, 9.3137, -3.8425, -8.065, 5.1812, -3.7522, -8.2938, 5.1812, -3.7522, -8.2938, 8.8803, -0.2421, -7.7694, 5.5082, -0.3691, -9.0766, 3.4075, 1.5562, -7.7726, 5.5082, -0.3691, -9.0766, 8.8803, -0.2421, -7.7694, -11.1989, 0.5546, -8.3724, -8.9119, 1.5448, -9.9297, -11.3764, 2.1288, -5.7762, -11.3764, 2.1288, -5.7762, -8.9119, 1.5448, -9.9297, -9.6378, 4.0847, -7.0837, -9.6378, 4.0847, -7.0837, -8.9119, 1.5448, -9.9297, -6.2793, 4.8814, -9.7123, -8.8104, 6.8394, -7.3196, -6.2793, 4.8814, -9.7123, -3.8717, 6.357, -7.766, -3.8717, 6.357, -7.766, 0.9434, 5.7497, -7.7244, -2.2825, 9.5438, -4.9462, 0.524, 2.113, -8.6403, 3.0786, 4.3982, -6.8796, 0.9434, 5.7497, -7.7244, 3.0786, 4.3982, -6.8796, 3.4075, 1.5562, -7.7726, 7.4921, 2.8243, -7.4409, 6.1318, -5.9738, -8.8403, 8.712, -8.1607, -6.7267, 8.3012, -6.1667, -8.4735, 3.5805, -6.7433, -8.267, 5.0707, -8.5654, -6.1509, 6.1318, -5.9738, -8.8403, -10.6382, -5.6672, -8.4135, -7.7552, -6.3012, -9.4652, -10.5385, -3.1663, -10.2579 )

[node name="ast_5_cr" instance=ExtResource( 1 )]
script = ExtResource( 2 )

[node name="StaticBody3D" type="StaticBody3D" parent="ast_5_cr" index="0"]

[node name="CollisionShape3D" type="CollisionShape3D" parent="ast_5_cr/StaticBody3D" index="0"]
shape = SubResource( 1 )

[connection signal="input_event" from="ast_5_cr/StaticBody3D" to="." method="_on_StaticBody_input_event"]
